<?xml version="1.0" encoding="UTF-8" standalone="no"?>
<svg
   xmlns:dc="http://purl.org/dc/elements/1.1/"
   xmlns:cc="http://creativecommons.org/ns#"
   xmlns:rdf="http://www.w3.org/1999/02/22-rdf-syntax-ns#"
   xmlns:svg="http://www.w3.org/2000/svg"
   xmlns="http://www.w3.org/2000/svg"
   xmlns:sodipodi="http://sodipodi.sourceforge.net/DTD/sodipodi-0.dtd"
   xmlns:inkscape="http://www.inkscape.org/namespaces/inkscape"
   width="17"
   height="17"
   viewBox="0 0 17 17"
   version="1.1"
   id="svg4"
   sodipodi:docname="x-circle-grey.svg"
   style="fill:none"
   inkscape:version="0.92.5 (2060ec1f9f, 2020-04-08)">
  <metadata
     id="metadata10">
    <rdf:RDF>
      <cc:Work
         rdf:about="">
        <dc:format>image/svg+xml</dc:format>
        <dc:type
           rdf:resource="http://purl.org/dc/dcmitype/StillImage" />
        <dc:title></dc:title>
      </cc:Work>
    </rdf:RDF>
  </metadata>
  <defs
     id="defs8" />
  <sodipodi:namedview
     pagecolor="#ffffff"
     bordercolor="#666666"
     borderopacity="1"
     objecttolerance="10"
     gridtolerance="10"
     guidetolerance="10"
     inkscape:pageopacity="0"
     inkscape:pageshadow="2"
     inkscape:window-width="1851"
     inkscape:window-height="1016"
     id="namedview6"
     showgrid="false"
     fit-margin-top="0"
     fit-margin-left="0"
     fit-margin-right="0"
     fit-margin-bottom="0"
     inkscape:zoom="11.8"
     inkscape:cx="-2.8050847"
     inkscape:cy="7.8305085"
     inkscape:window-x="69"
     inkscape:window-y="27"
     inkscape:window-maximized="1"
     inkscape:current-layer="svg4" />
  <path
     d="M 8.5,17 C 13.194444,17 17,13.194444 17,8.5 17,3.8055775 13.194444,0 8.5,0 3.8055775,0 0,3.8055775 0,8.5 0,13.194444 3.8055775,17 8.5,17 Z M 7.1263044,5.6236956 c -0.4149382,-0.4149275 -1.0876706,-0.4149275 -1.5026088,0 -0.4149275,0.4149382 -0.4149275,1.0876706 0,1.5026088 L 6.9974019,8.5 5.6236956,9.873706 c -0.4149275,0.414906 -0.4149275,1.087681 0,1.502588 0.4149382,0.414906 1.0876706,0.414906 1.5026088,0 L 8.5,10.002587 9.873706,11.376294 c 0.414906,0.414906 1.087681,0.414906 1.502588,0 0.414906,-0.414907 0.414906,-1.087682 0,-1.502588 L 10.002587,8.5 11.376294,7.1263044 c 0.414906,-0.4149382 0.414906,-1.0876706 0,-1.5026088 -0.414906,-0.4149275 -1.087681,-0.4149275 -1.502588,0 L 8.5,6.9974019 Z"
     id="path2"
     inkscape:connector-curvature="0"
     style="clip-rule:evenodd;fill:#757575;fill-rule:evenodd;stroke-width:1;fill-opacity:1" />
</svg>
